Matching Methodology
…
# Run matching algorithm
model_lst <- matchit(TB_yn ~ BYR + age_lst,
                      data = match_lst,
                      distance = "glm",
                      link = "probit",
                     caliper = c(age_lst = 1, BYR = 1),
                     ratio = 5)

# INDEX
matched_df <- index(model_lst)

check_random_pairs(matched_df, n_pairs = 5)

## # A tibble: 29 × 19
##    recidnum   tb_first_date age_tb age_death   BYR   DYR initstat TB_yn wnd_yn
##    <chr>              <dbl>  <dbl>     <dbl> <dbl> <dbl> <chr>    <dbl>  <int>
##  1 203004020           1864     41        60  1823  1883 ME           1      1
##  2 200904160             NA     NA        42  1823  1865 ME           0      0
##  3 2406207066            NA     NA        53  1823  1876 OH           0      0
##  4 3300609048            NA     NA        87  1822  1909 MN           0      0
##  5 2102307050            NA     NA        43  1822  1865 IL           0      0
##  6 2505301009          1863     23        44  1840  1884 WI           1      0
##  7 2200903126            NA     NA        72  1840  1912 IN           0      0
##  8 2105101075            NA     NA        67  1840  1907 IL           0      0
##  9 3400602094            NA     NA        67  1840  1907 MO           0      1
## 10 2404109022            NA     NA        43  1840  1883 OH           0      1
## # ℹ 19 more rows
## # ℹ 10 more variables: lst1_hgt <dbl>, first_lst <dbl>, age_lst <dbl>,
## #   distance <dbl>, weights <dbl>, subclass <fct>, status <dbl>, tb_year <dbl>,
## #   index_year <dbl>, survival_time <dbl>
…
# Run matching algorithm
model_hgt <- matchit(TB_yn ~ BYR + age_lst + lst1_hgt,
                      data = match_hgt,
                      distance = "glm",
                      link = "probit",
                     caliper = c(age_lst = 1, BYR = 1, lst1_hgt = 1),
                     ratio = 5
                    # exact = ~BYR + age_lst + lst1_hgt)
)
# INDEX
matched_df <- index(model_hgt)

check_random_pairs(matched_df, n_pairs = 5)

## # A tibble: 29 × 19
##    recidnum   tb_first_date age_tb age_death   BYR   DYR initstat TB_yn wnd_yn
##    <chr>              <dbl>  <dbl>     <dbl> <dbl> <dbl> <chr>    <dbl>  <int>
##  1 2204403045          1864     23        74  1841  1915 IN           1      0
##  2 2302905107            NA     NA        68  1847  1915 MI           0      0
##  3 1420503033            NA     NA        73  1841  1914 PA           0      1
##  4 1415508027            NA     NA        76  1841  1917 PA           0      1
##  5 5102306024            NA     NA        47  1843  1890 KY           0      0
##  6 2300109005          1862     29        54  1833  1887 MI           1      0
##  7 2301009165            NA     NA        79  1833  1912 MI           0      1
##  8 1408411102            NA     NA        87  1833  1920 PA           0      0
##  9 2405509090            NA     NA        73  1827  1900 OH           0      1
## 10 2202309001            NA     NA        86  1833  1919 IN           0      0
## # ℹ 19 more rows
## # ℹ 10 more variables: lst1_hgt <dbl>, first_lst <dbl>, age_lst <dbl>,
## #   distance <dbl>, weights <dbl>, subclass <fct>, status <dbl>, tb_year <dbl>,
## #   index_year <dbl>, survival_time <dbl>
…
## Warning: Not all treated units will get 8 matches.

# INDEX
matched_df <- index(model_state)

check_random_pairs(matched_df, n_pairs = 20)

## # A tibble: 170 × 19
##    recidnum   tb_first_date age_tb age_death   BYR   DYR initstat TB_yn wnd_yn
##    <chr>              <dbl>  <dbl>     <dbl> <dbl> <dbl> <chr>    <dbl>  <int>
##  1 2202403213          1864     24        78  1840  1918 IN           1      1
##  2 2202403129            NA     NA        67  1840  1907 IN           0      0
##  3 2204205004            NA     NA        78  1833  1911 IN           0      0
##  4 2214607038            NA     NA        66  1844  1910 IN           0      0
##  5 2204403082            NA     NA        77  1843  1920 IN           0      1
##  6 2203502095            NA     NA        30  1835  1865 IN           0      0
##  7 2201311087            NA     NA        54  1832  1886 IN           0      0
##  8 2202607026            NA     NA        46  1836  1882 IN           0      0
##  9 2202907104            NA     NA        82  1832  1914 IN           0      1
## 10 2107905040          1862     29        74  1833  1907 IL           1      0
## # ℹ 160 more rows
## # ℹ 10 more variables: lst1_hgt <dbl>, first_lst <dbl>, age_lst <dbl>,
## #   distance <dbl>, weights <dbl>, subclass <fct>, status <dbl>, tb_year <dbl>,
## #   index_year <dbl>, survival_time <dbl>
…
